-------------------------------------------------------------------------------
Test set: com.taway.got.playerClient.GameServiceTest
-------------------------------------------------------------------------------
Tests run: 2, Failures: 0, Errors: 0, Skipped: 0, Time elapsed: 0.09 sec
